Password_screen/password_menu_tb.vcd
$date
	Tue Jul 14 00:41:44 2026
$end
$version
	Icarus Verilog
$end
$timescale
	1ps
$end
$scope module password_menu_tb $end
$var wire 3 ! puntero_digitos [2:0] $end
$var wire 1 " exit $end
$var wire 1 # correct_password $end
$var reg 1 $ Aceptar $end
$var reg 1 % Borrar $end
$var reg 1 & Salir $end
$var reg 1 ' clk $end
$var reg 1 ( correct_seen $end
$var reg 1 ) exit_seen $end
$var reg 4 * key_out [3:0] $end
$var reg 1 + password $end
$var reg 1 , push_button $end
$var reg 1 - rst $end
$var integer 32 . errors [31:0] $end
$scope module dut $end
$var wire 1 $ Aceptar $end
$var wire 1 / Aceptar_re $end
$var wire 1 % Borrar $end
$var wire 1 0 Borrar_re $end
$var wire 1 & Salir $end
$var wire 1 1 Salir_re $end
$var wire 1 2 acepta_digito $end
$var wire 1 ' clk $end
$var wire 4 3 key_out [3:0] $end
$var wire 1 + password $end
$var wire 1 , push_button $end
$var wire 1 4 push_button_re $end
$var wire 1 - rst $end
$var wire 1 5 is_digit $end
$var wire 16 6 entered_password [15:0] $end
$var parameter 16 7 DEFAULT_PASSWORD $end
$var reg 1 8 Aceptar_d $end
$var reg 1 9 Borrar_d $end
$var reg 4 : D0 [3:0] $end
$var reg 4 ; D1 [3:0] $end
$var reg 4 < D2 [3:0] $end
$var reg 4 = D3 [3:0] $end
$var reg 1 > Salir_d $end
$var reg 1 # correct_password $end
$var reg 1 " exit $end
$var reg 3 ? puntero_digitos [2:0] $end
$var reg 1 @ push_button_d $end
$upscope $end
$scope task check_eq $end
$var reg 3 A expected [2:0] $end
$var reg 3 B got [2:0] $end
$var reg 512 C msg [511:0] $end
$upscope $end
$scope task press_Aceptar $end
$var integer 32 D hold_cycles [31:0] $end
$var integer 32 E i [31:0] $end
$upscope $end
$scope task press_Borrar $end
$var integer 32 F hold_cycles [31:0] $end
$var integer 32 G i [31:0] $end
$upscope $end
$scope task press_Salir $end
$var integer 32 H hold_cycles [31:0] $end
$var integer 32 I i [31:0] $end
$upscope $end
$scope task press_digit $end
$var reg 4 J digit [3:0] $end
$var integer 32 K hold_cycles [31:0] $end
$var integer 32 L i [31:0] $end
$upscope $end
$upscope $end
$enddefinitions $end
$comment Show the parameter values. $end
$dumpall
b1001000110100 7
$end
#0
$dumpvars
bx L
bx K
bx J
bx I
bx H
bx G
bx F
bx E
bx D
bx C
bx B
bx A
x@
bx ?
x>
bx =
bx <
bx ;
bx :
x9
x8
bx 6
05
04
b1111 3
02
01
00
0/
b0 .
1-
0,
1+
b1111 *
0)
0(
0'
0&
0%
0$
x#
x"
bx !
$end
#5000
0>
09
08
0@
b0 !
b0 ?
b0 :
b0 ;
b0 <
b0 6
b0 =
0#
0"
1'
#10000
0'
#15000
1'
#20000
b1 K
b1 J
b111000001110101011011100111010001100101011100100110111101011111011001000110100101100111011010010111010001101111011100110010000001101001011011100110100101100011011010010110000100100000011001010110111000100000001100000010000001110100011100100110000101110011001000000111001001100101011100110110010101110100 C
b0 A
b0 B
0-
0'
#25000
1'
#30000
12
14
b0 L
1,
15
b1 *
b1 3
0'
#35000
02
04
b1 !
b1 ?
b1000000000000 6
b1 =
1@
1'
#40000
05
b1111 *
b1111 3
0,
b1 L
0'
#45000
0@
1'
#50000
b10 J
0'
#55000
1'
#60000
12
14
b0 L
1,
15
b10 *
b10 3
0'
#65000
02
04
1@
b10 !
b10 ?
b1001000000000 6
b10 <
1'
#70000
05
b1111 *
b1111 3
0,
b1 L
0'
#75000
0@
1'
#80000
b11 J
0'
#85000
1'
#90000
12
14
b0 L
1,
15
b11 *
b11 3
0'
#95000
02
04
b11 !
b11 ?
b1001000110000 6
b11 ;
1@
1'
#100000
05
b1111 *
b1111 3
0,
b1 L
0'
#105000
0@
1'
#110000
b100 J
0'
#115000
1'
#120000
12
14
b0 L
1,
15
b100 *
b100 3
0'
#125000
04
02
1@
b100 !
b100 ?
b1001000110100 6
b100 :
1'
#130000
05
b1111 *
b1111 3
0,
b1 L
0'
#135000
0@
1'
#140000
b1 D
0'
#145000
1'
#150000
1/
b0 E
1$
0'
#155000
0/
1#
18
1'
#160000
0$
b1 E
0'
#165000
08
0#
1(
1'
#170000
b1 F
0'
#175000
1'
#180000
10
b0 G
1%
0'
#185000
00
19
b0 !
b0 ?
b0 :
b0 ;
b0 <
b0 6
b0 =
1'
#190000
0%
b1 G
0'
#195000
09
1'
#200000
b101 K
b1 J
0(
0'
#205000
1'
#210000
12
14
b0 L
1,
15
b1 *
b1 3
0'
#215000
02
04
b1 !
b1 ?
b1000000000000 6
b1 =
1@
1'
#220000
b1 L
0'
#225000
1'
#230000
b10 L
0'
#235000
1'
#240000
b11 L
0'
#245000
1'
#250000
b100 L
0'
#255000
1'
#260000
05
b1111 *
b1111 3
0,
b101 L
0'
#265000
0@
1'
#270000
b1 K
b10 J
0'
#275000
1'
#280000
12
14
b0 L
1,
15
b10 *
b10 3
0'
#285000
02
04
1@
b10 !
b10 ?
b1001000000000 6
b10 <
1'
#290000
05
b1111 *
b1111 3
0,
b1 L
0'
#295000
0@
1'
#300000
b11 J
0'
#305000
1'
#310000
12
14
b0 L
1,
15
b11 *
b11 3
0'
#315000
02
04
b11 !
b11 ?
b1001000110000 6
b11 ;
1@
1'
#320000
05
b1111 *
b1111 3
0,
b1 L
0'
#325000
0@
1'
#330000
b100 J
0'
#335000
1'
#340000
12
14
b0 L
1,
15
b100 *
b100 3
0'
#345000
04
02
1@
b100 !
b100 ?
b1001000110100 6
b100 :
1'
#350000
05
b1111 *
b1111 3
0,
b1 L
0'
#355000
0@
1'
#360000
0'
#365000
1'
#370000
1/
b0 E
1$
0'
#375000
0/
1#
18
1'
#380000
0$
b1 E
0'
#385000
08
0#
1(
1'
#390000
b1001 J
0'
#395000
1'
#400000
14
b0 L
1,
15
b1001 *
b1001 3
0'
#405000
04
1@
1'
#410000
05
b1111 *
b1111 3
0,
b1 L
0'
#415000
0@
1'
#420000
0'
#425000
1'
#430000
14
b0 L
1,
15
b1001 *
b1001 3
0'
#435000
04
1@
1'
#440000
05
b1111 *
b1111 3
0,
b1 L
0'
#445000
0@
1'
#450000
0'
#455000
1'
#460000
14
b0 L
1,
15
b1001 *
b1001 3
0'
#465000
04
1@
1'
#470000
05
b1111 *
b1111 3
0,
b1 L
0'
#475000
0@
1'
#480000
0'
#485000
1'
#490000
10
b0 G
1%
0'
#495000
00
b0 !
b0 ?
b0 :
b0 ;
b0 <
b0 6
b0 =
19
1'
#500000
0%
b1 G
0'
#505000
09
1'
#510000
b1 J
0(
b11101000111001001100001011100110010000001000010011011110111001001110010011000010111001000101100001000000111000001110101011011100111010001100101011100100110111101011111011001000110100101100111011010010111010001101111011100110010000001110110011101010110010101101100011101100110010100100000011000010010000000110000 C
0'
#515000
1'
#520000
12
14
b0 L
1,
15
b1 *
b1 3
0'
#525000
02
04
1@
b1 !
b1 ?
b1000000000000 6
b1 =
1'
#530000
05
b1111 *
b1111 3
0,
b1 L
0'
#535000
0@
1'
#540000
b10 J
0'
#545000
1'
#550000
12
14
b0 L
1,
15
b10 *
b10 3
0'
#555000
02
04
b10 !
b10 ?
b1001000000000 6
b10 <
1@
1'
#560000
05
b1111 *
b1111 3
0,
b1 L
0'
#565000
0@
1'
#570000
b11 J
0'
#575000
1'
#580000
12
14
b0 L
1,
15
b11 *
b11 3
0'
#585000
02
04
1@
b11 !
b11 ?
b1001000110000 6
b11 ;
1'
#590000
05
b1111 *
b1111 3
0,
b1 L
0'
#595000
0@
1'
#600000
b100 J
0'
#605000
1'
#610000
12
14
b0 L
1,
15
b100 *
b100 3
0'
#615000
04
02
b100 !
b100 ?
b1001000110100 6
b100 :
1@
1'
#620000
05
b1111 *
b1111 3
0,
b1 L
0'
#625000
0@
1'
#630000
0'
#635000
1'
#640000
1/
b0 E
1$
0'
#645000
0/
18
1#
1'
#650000
0$
b1 E
0'
#655000
1(
0#
08
1'
#660000
0'
#665000
1'
#670000
10
b0 G
1%
0'
#675000
00
b0 !
b0 ?
b0 :
b0 ;
b0 <
b0 6
b0 =
19
1'
#680000
0%
b1 G
0'
#685000
09
1'
#690000
b1001 J
0(
0'
#695000
1'
#700000
12
14
b0 L
1,
15
b1001 *
b1001 3
0'
#705000
02
04
1@
b1 !
b1 ?
b1001000000000000 6
b1001 =
1'
#710000
05
b1111 *
b1111 3
0,
b1 L
0'
#715000
0@
1'
#720000
0'
#725000
1'
#730000
12
14
b0 L
1,
15
b1001 *
b1001 3
0'
#735000
02
04
b10 !
b10 ?
b1001100100000000 6
b1001 <
1@
1'
#740000
05
b1111 *
b1111 3
0,
b1 L
0'
#745000
0@
1'
#750000
0'
#755000
1'
#760000
12
14
b0 L
1,
15
b1001 *
b1001 3
0'
#765000
02
04
1@
b11 !
b11 ?
b1001100110010000 6
b1001 ;
1'
#770000
05
b1111 *
b1111 3
0,
b1 L
0'
#775000
0@
1'
#780000
0'
#785000
1'
#790000
12
14
b0 L
1,
15
b1001 *
b1001 3
0'
#795000
04
02
b100 !
b100 ?
b1001100110011001 6
b1001 :
1@
1'
#800000
05
b1111 *
b1111 3
0,
b1 L
0'
#805000
0@
1'
#810000
0'
#815000
1'
#820000
1/
b0 E
1$
0'
#825000
0/
18
1'
#830000
0$
b1 E
0'
#835000
08
1'
#840000
0'
#845000
1'
#850000
10
b0 G
1%
0'
#855000
00
b0 !
b0 ?
b0 :
b0 ;
b0 <
b0 6
b0 =
19
1'
#860000
0%
b1 G
0'
#865000
09
1'
#870000
b1 J
0'
#875000
1'
#880000
12
14
b0 L
1,
15
b1 *
b1 3
0'
#885000
02
04
1@
b1 !
b1 ?
b1000000000000 6
b1 =
1'
#890000
05
b1111 *
b1111 3
0,
b1 L
0'
#895000
0@
1'
#900000
b10 J
0'
#905000
1'
#910000
12
14
b0 L
1,
15
b10 *
b10 3
0'
#915000
02
04
b10 !
b10 ?
b1001000000000 6
b10 <
1@
1'
#920000
05
b1111 *
b1111 3
0,
b1 L
0'
#925000
0@
1'
#930000
b11 J
0'
#935000
1'
#940000
12
14
b0 L
1,
15
b11 *
b11 3
0'
#945000
02
04
1@
b11 !
b11 ?
b1001000110000 6
b11 ;
1'
#950000
05
b1111 *
b1111 3
0,
b1 L
0'
#955000
0@
1'
#960000
b100 J
0'
#965000
1'
#970000
12
14
b0 L
1,
15
b100 *
b100 3
0'
#975000
04
02
b100 !
b100 ?
b1001000110100 6
b100 :
1@
1'
#980000
05
b1111 *
b1111 3
0,
b1 L
0'
#985000
0@
1'
#990000
b1001 J
0'
#995000
1'
#1000000
14
b0 L
1,
15
b1001 *
b1001 3
0'
#1005000
04
1@
1'
#1010000
05
b1111 *
b1111 3
0,
b1 L
0'
#1015000
0@
1'
#1020000
0'
#1025000
1'
#1030000
14
b0 L
1,
15
b1001 *
b1001 3
0'
#1035000
04
1@
1'
#1040000
05
b1111 *
b1111 3
0,
b1 L
0'
#1045000
0@
1'
#1050000
b111000001110101011011100111010001100101011100100110111101011111011001000110100101100111011010010111010001101111011100110010000001110011011001010010000001100011011011110110111001100111011001010110110001100001001000000110010101101110001000000011010000100000011101000111001001100001011100110010000001100101011011000010000000110100011101000110111100100000011001000110100101100111011010010111010001101111 C
b100 A
b100 B
0'
#1055000
1'
#1060000
1/
b0 E
1$
0'
#1065000
0/
18
1#
1'
#1070000
0$
b1 E
0'
#1075000
1(
0#
08
1'
#1080000
b11 H
0'
#1085000
1'
#1090000
11
b0 I
1&
0'
#1095000
01
1"
1>
1'
#1100000
b1 I
0'
#1105000
0"
1)
1'
#1110000
b10 I
0'
#1115000
1'
#1120000
0&
b11 I
0'
#1125000
0>
1'
#1130000
0'
#1135000
1'
#1140000
10
b0 G
1%
0'
#1145000
00
19
b0 !
b0 ?
b0 :
b0 ;
b0 <
b0 6
b0 =
1'
#1150000
0%
b1 G
0'
#1155000
09
1'
#1160000
b111 J
b111000001110101011011100111010001100101011100100110111101011111011001000110100101100111011010010111010001101111011100110010000000111101001000000011000000110000001100000010000001100001011011100111010001100101011100110010000001100100011001010010000001101001011011100110011101110010011001010111001101100001011100100010000001101110011000010110010001100001 C
b0 A
b0 B
0'
#1165000
1'
#1170000
12
14
b0 L
1,
15
b111 *
b111 3
0'
#1175000
02
04
b1 !
b1 ?
b111000000000000 6
b111 =
1@
1'
#1180000
05
b1111 *
b1111 3
0,
b1 L
0'
#1185000
0@
1'
#1190000
b1000 J
b1110000011101010110111001110100011001010111001001101111010111110110010001101001011001110110100101110100011011110111001100100000001111010010000000110000001100000011000100100000011101000111001001100001011100110010000000110001011001010111001000100000011001000110100101100111011010010111010001101111 C
b1 A
b1 B
0'
#1195000
1'
#1200000
12
14
b0 L
1,
15
b1000 *
b1000 3
0'
#1205000
02
04
1@
b10 !
b10 ?
b111100000000000 6
b1000 <
1'
#1210000
05
b1111 *
b1111 3
0,
b1 L
0'
#1215000
0@
1'
#1220000
b1001 J
b1110000011101010110111001110100011001010111001001101111010111110110010001101001011001110110100101110100011011110111001100100000001111010010000000110000001100010011000000100000011101000111001001100001011100110010000000110010011001000110111100100000011001000110100101100111011010010111010001101111 C
b10 A
b10 B
0'
#1225000
1'
#1230000
12
14
b0 L
1,
15
b1001 *
b1001 3
0'
#1235000
02
04
b11 !
b11 ?
b111100010010000 6
b1001 ;
1@
1'
#1240000
05
b1111 *
b1111 3
0,
b1 L
0'
#1245000
0@
1'
#1250000
b0 J
b1110000011101010110111001110100011001010111001001101111010111110110010001101001011001110110100101110100011011110111001100100000001111010010000000110000001100010011000100100000011101000111001001100001011100110010000000110011011001010111001000100000011001000110100101100111011010010111010001101111 C
b11 A
b11 B
0'
#1255000
1'
#1260000
12
14
b0 L
1,
15
b0 *
b0 3
0'
#1265000
04
02
1@
b100 !
b100 ?
1'
#1270000
05
b1111 *
b1111 3
0,
b1 L
0'
#1275000
0@
1'
#1280000
b101 J
b1110000011101010110111001110100011001010111001001101111010111110110010001101001011001110110100101110100011011110111001100100000001111010010000000110001001100000011000000100000011101000111001001100001011100110010000000110100011101000110111100100000011001000110100101100111011010010111010001101111 C
b100 A
b100 B
0'
#1285000
1'
#1290000
14
b0 L
1,
15
b101 *
b101 3
0'
#1295000
04
1@
1'
#1300000
05
b1111 *
b1111 3
0,
b1 L
0'
#1305000
0@
1'
#1310000
b1110000011101010110111001110100011001010111001001101111010111110110010001101001011001110110100101110100011011110111001100100000011100110110100101100111011101010110010100100000011001010110111000100000001100010011000000110000001000000111010001110010011000010111001100100000011001000110100101100111011010010111010001101111001000000110010101111000011101000111001001100001 C
0'
#1315000
1'
#1320000
10
b0 G
1%
0'
#1325000
00
19
b0 !
b0 ?
b0 ;
b0 <
b0 6
b0 =
1'
#1330000
0%
b1 G
0'
#1335000
09
1'
#1340000
b1 J
0(
0'
#1345000
1'
#1350000
12
14
b0 L
1,
15
b1 *
b1 3
0'
#1355000
02
04
b1 !
b1 ?
b1000000000000 6
b1 =
1@
1'
#1360000
05
b1111 *
b1111 3
0,
b1 L
0'
#1365000
0@
1'
#1370000
b10 J
0'
#1375000
1'
#1380000
12
14
b0 L
1,
15
b10 *
b10 3
0'
#1385000
02
04
1@
b10 !
b10 ?
b1001000000000 6
b10 <
1'
#1390000
05
b1111 *
b1111 3
0,
b1 L
0'
#1395000
0@
1'
#1400000
b11 J
0'
#1405000
1'
#1410000
12
14
b0 L
1,
15
b11 *
b11 3
0'
#1415000
02
04
b11 !
b11 ?
b1001000110000 6
b11 ;
1@
1'
#1420000
05
b1111 *
b1111 3
0,
b1 L
0'
#1425000
0@
1'
#1430000
0+
b111000001110101011011100111010001100101011100100110111101011111011001000110100101100111011010010111010001101111011100110010000000111101001000000011001100100000011000010110111001110100011001010111001100100000011001000110010100100000011001000110010101110011011010000110000101100010011010010110110001101001011101000110000101110010001000000110110001100001001000000111000001100101011100110111010011111111111111111011000101100001 C
b11 A
b11 B
0'
#1435000
b0 !
b0 ?
b0 ;
b0 <
b0 6
b0 =
1'
#1440000
b1 J
0)
b110000101101100001000000111001101100001011011000110100101110010001000000010100001110000011000010111001101110011011101110110111101110010011001000011110100110000001010010010110000100000011100110110010100100000011000100110111101110010011100100110000100100000011000010111010101110100011011110110110101100001011101000110100101100011011000010110110101100101011011100111010001100101 C
b0 A
b0 B
0'
#1445000
1'
#1450000
14
b0 L
1,
15
b1 *
b1 3
0'
#1455000
04
1@
1'
#1460000
05
b1111 *
b1111 3
0,
b1 L
0'
#1465000
0@
1'
#1470000
b10 J
0'
#1475000
1'
#1480000
14
b0 L
1,
15
b10 *
b10 3
0'
#1485000
04
1@
1'
#1490000
05
b1111 *
b1111 3
0,
b1 L
0'
#1495000
0@
1'
#1500000
b11 J
0'
#1505000
1'
#1510000
14
b0 L
1,
15
b11 *
b11 3
0'
#1515000
04
1@
1'
#1520000
05
b1111 *
b1111 3
0,
b1 L
0'
#1525000
0@
1'
#1530000
b100 J
0'
#1535000
1'
#1540000
14
b0 L
1,
15
b100 *
b100 3
0'
#1545000
04
1@
1'
#1550000
05
b1111 *
b1111 3
0,
b1 L
0'
#1555000
0@
1'
#1560000
b11000110110111101101110001000000111000001100001011100110111001101110111011011110111001001100100001111010011000000101100001000000110110001101111011100110010000001100100011010010110011101101001011101000110111101110011001000000110111001101111001000000111001101100101001000000110001101100001011100000111010001110101011100100110000101101110 C
0'
#1565000
1'
#1570000
1/
b0 E
1$
0'
#1575000
0/
18
1'
#1580000
0$
b1 E
0'
#1585000
08
1'
#1590000
b1 H
0'
#1595000
1'
#1600000
11
b0 I
1&
0'
#1605000
01
1>
1'
#1610000
0&
b1 I
0'
#1615000
0>
1'
#1620000
1+
0'
#1625000
1'
#1630000
b1 J
b1100001011011000010000001110010011001010110000101100011011101000110100101110110011000010111001000100000011100000110000101110011011100110111011101101111011100100110010000111101001100010010110000100000011000010111001001110010011000010110111001100011011000010010000001100101011011100010000000110000001000000010100001101100011010010110110101110000011010010110111100101001 C
0'
#1635000
1'
#1640000
12
14
b0 L
1,
15
b1 *
b1 3
0'
#1645000
02
04
1@
b1 !
b1 ?
b1000000000000 6
b1 =
1'
#1650000
05
b1111 *
b1111 3
0,
b1 L
0'
#1655000
0@
1'
#1660000
b10 J
0'
#1665000
1'
#1670000
12
14
b0 L
1,
15
b10 *
b10 3
0'
#1675000
02
04
b10 !
b10 ?
b1001000000000 6
b10 <
1@
1'
#1680000
05
b1111 *
b1111 3
0,
b1 L
0'
#1685000
0@
1'
#1690000
b11 J
0'
#1695000
1'
#1700000
12
14
b0 L
1,
15
b11 *
b11 3
0'
#1705000
02
04
1@
b11 !
b11 ?
b1001000110000 6
b11 ;
1'
#1710000
05
b1111 *
b1111 3
0,
b1 L
0'
#1715000
0@
1'
#1720000
b100 J
0'
#1725000
1'
#1730000
12
14
b0 L
1,
15
b100 *
b100 3
0'
#1735000
04
02
b100 !
b100 ?
b1001000110100 6
b100 :
1@
1'
#1740000
05
b1111 *
b1111 3
0,
b1 L
0'
#1745000
0@
1'
#1750000
0'
#1755000
1'
#1760000
1/
b0 E
1$
0'
#1765000
0/
18
1#
1'
#1770000
0$
b1 E
0'
#1775000
1(
0#
08
1'
